* gnetlist -v -g spice-sdb -o TIA_6629_6629_6654_BC550_30nH_single_supply.net TIA_6629_6629_6654_BC550_30nH_single_supply.sch
.include /data/datasheets/gEDA/spice_models/ada4930-1.cir
.include /data/datasheets/gEDA/spice_models/ada4932.cir
.include /data/datasheets/gEDA/spice_models/ada4927.cir
.include /data/datasheets/gEDA/spice_models/ada4939.cir

* Power supplies
VP   Vcc  0 DC 2.5V AC 0.1
Cdecp1 Vcc 0 100n
Cdecp2 Vcc 0 10u
VM   Vdd  0 DC -2.5V AC 0.1
Cdecm1 Vdd 0 100n
Cdecm2 Vdd 0 10u

R_PedP VPedP  Vcc 1k
R_PedM VPedP  0 1k
C_Ped    VpedP  0 10u

R_ocmP  Vocm  Vcc 3000
R_ocmM Vocm  0    1000
Cdec_Vocm Vocm 0 10u

* Signal source (I_APD_ref APD_K_ref 0 DC 0)
V_in Sig_in 0 DC 0 AC 0.1
+PWL 0. 0.6 1.e-9 0.6 5.e-9 0. 20.e-9 -0. 24.e-9 0.6 100.e-9 0.6
*+PWL 0. 0. 1.e-9 0. 5.e-9 -.6 20.e-9 -.6 24.e-9 0. 100.e-9 0.
R_adapt sig_in 0_diffP 50
C_lin Sig_in Vin_diffP 10u
*R_lin sig_in Vin_diffP 1k

* Differential buffer:
RdiffP_polp VpedP   VinP 440
RdiffP_polm 0            VinM 440

*X_Diff VfbM VfbP VinP VinM Vcc Vdd VoutP VoutM Vocm ADA4930
*X_Diff VfbM VfbP VinP VinM Vcc Vdd VoutP VoutM Vocm ADA4927
X_Diff VfbM VfbP VinP VinM Vcc Vdd VoutP VoutM Vocm ADA4939
*X_Diff VfbM VinP VinM VfbP Vcc Vdd VoutM VoutP Vcc Vocm ADA4932
R1P       Vin_diffp VinP 301
R2P       VinP      VfbM 301
R2M       VinM      VfbP 301
R1M       Vin_diffm VinM  301
Cdiff_inP Vin_diffm 0 10u
*Rdiff_inP Vin_diffm 0 1k

*Rdiff_outM VoutM VoutM_R 10
*Cfilt1 VoutM_R 0 270p
*Rdiff_outP VoutP VoutP_R 10
*Cfilt2 VoutP_R 0 270p
* 47/ 82n/ 82n/47p/47      : 7.5ns rise time, 45 MHz BW, overshoot  4/500 mV (1.8 Ohm parasitic on 100 nH), 40dB/dec, 40uV extra noise -OK
* 42/ 82n/ 82n/42p/47      : 6.5ns rise time, 52 MHz BW, overshoot 13/500 mV (1.8 Ohm parasitic on 100 nH), 40dB/dec, 40uV extra noise -OK

*Rlpf1         VoutP      VoutP1     47
*Llpf1          VoutP1    VoutP2     82n
*Rlpf1_par VoutP2    VoutP_R  1.8
*Llpf2          VoutM1   VoutM2     82n
*Rlpf2_par VoutM2    VoutM_R 1.8
*Clpf2         VoutP_R VoutM_R  47p
*Rlpf2         VoutM      VoutM1     47

*   ~80 MHz
Rlpf1         VoutP      VoutP_R     22
Clpf2         VoutP_R VoutM_R  47p
Rlpf2         VoutM      VoutM_R     22


Rdiff_ADC VoutP_R VoutM_R 20k
Cdiff_ADC VoutP_R VoutM_R 2.5p
eout9 Vdiffout 0 VoutP_R VoutM_R 1
Rout9 Vdiffout 0 1k

.temp 18
*.tran 100p 200n
*.ac oct 100 1000 2.5G
.noise v(vdiffout) V_in oct 10 1e3 1e9 1

.end




