EESchema Schematic File Version 4
LIBS:vfe_CATIA_LiteDTU_1C-cache
EELAYER 26 0
EELAYER END
$Descr A4 11693 8268
encoding utf-8
Sheet 1 2
Title ""
Date ""
Rev ""
Comp ""
Comment1 ""
Comment2 ""
Comment3 ""
Comment4 ""
$EndDescr
$Comp
L MDJ_compo:V2P5A #PWR0105
U 1 1 5912AAC7
P 3850 875
F 0 "#PWR0105" H 3850 725 50  0001 C CNN
F 1 "V2P5A" H 3850 1015 50  0000 C CNN
F 2 "" H 3850 875 50  0000 C CNN
F 3 "" H 3850 875 50  0000 C CNN
	1    3850 875 
	1    0    0    -1  
$EndComp
Text Label 4700 2875 0    60   ~ 0
B_Leak
Text Label 4700 2775 0    60   ~ 0
B_Ch
Text Label 4475 1975 0    60   ~ 0
Temp_APD
Text Label 4700 1575 0    60   ~ 0
D_Leak
Text Label 4700 1475 0    60   ~ 0
D_Ch
$Comp
L power:GNDA #PWR0104
U 1 1 5912B509
P 3750 3525
F 0 "#PWR0104" H 3750 3275 50  0001 C CNN
F 1 "GNDA" H 3750 3375 50  0000 C CNN
F 2 "" H 3750 3525 50  0000 C CNN
F 3 "" H 3750 3525 50  0000 C CNN
	1    3750 3525
	1    0    0    -1  
$EndComp
$Comp
L power:GNDA #PWR0106
U 1 1 5912B51F
P 4550 3525
F 0 "#PWR0106" H 4550 3275 50  0001 C CNN
F 1 "GNDA" H 4550 3375 50  0000 C CNN
F 2 "" H 4550 3525 50  0000 C CNN
F 3 "" H 4550 3525 50  0000 C CNN
	1    4550 3525
	1    0    0    -1  
$EndComp
Text Label 2750 1325 2    50   ~ 0
ReSync-
Text Label 2750 1225 2    50   ~ 0
ReSync+
$Comp
L MDJ_compo:ERNI-154765 J101
U 1 1 5913027C
P 1750 5675
F 0 "J101" H 1750 4225 60  0000 C CNN
F 1 "ERNI-154765" V 1750 5675 60  0000 C CNN
F 2 "MDJ_mod:ERNI-154765" H 1650 5675 60  0001 C CNN
F 3 "" H 1650 5675 60  0000 C CNN
	1    1750 5675
	-1   0    0    -1  
$EndComp
$Comp
L MDJ_compo:ERNI-154765 J102
U 1 1 59130396
P 1750 2225
F 0 "J102" H 1750 775 60  0000 C CNN
F 1 "ERNI-154765" V 1750 2225 60  0000 C CNN
F 2 "MDJ_mod:ERNI-154765" H 1650 2225 60  0001 C CNN
F 3 "" H 1650 2225 60  0000 C CNN
	1    1750 2225
	-1   0    0    -1  
$EndComp
Text Label 950  1025 0    39   ~ 0
I2C_SCL_in
Text Label 950  1125 0    39   ~ 0
I2C_SDA_in
Text Label 2750 1925 2    50   ~ 0
A_D0-
Text Label 2750 1825 2    50   ~ 0
A_D0+
Text Label 2750 1625 2    50   ~ 0
A_Clk-
Text Label 750  2025 0    50   ~ 0
A_SEUA
Text Label 750  1725 0    50   ~ 0
A_SEUD
Text Label 2750 1525 2    50   ~ 0
A_Clk+
Text Label 2750 2125 2    50   ~ 0
A_CalBusy
Text Label 750  2125 0    50   ~ 0
A_OVF
Text Label 2325 6875 0    50   ~ 0
Temp_CATIA
Text Label 750  6875 0    50   ~ 0
CalibMode
$Comp
L MDJ_compo:IPT125_R P101
U 1 1 5914B3B6
P 4200 2175
F 0 "P101" H 4200 3475 50  0000 C CNN
F 1 "CONN_IPT125" V 4200 2175 50  0000 C CNN
F 2 "MDJ_mod:Samtec_IPT125_R" H 4200 850 50  0000 C CNN
F 3 "" H 4200 1425 50  0000 C CNN
	1    4200 2175
	1    0    0    -1  
$EndComp
$Comp
L power:GNDD #PWR0113
U 1 1 594A9767
P 6125 7350
F 0 "#PWR0113" H 6125 7100 50  0001 C CNN
F 1 "GNDD" H 6125 7200 50  0000 C CNN
F 2 "" H 6125 7350 50  0000 C CNN
F 3 "" H 6125 7350 50  0000 C CNN
	1    6125 7350
	1    0    0    -1  
$EndComp
$Comp
L power:GNDA #PWR0114
U 1 1 594A9A8D
P 6325 7350
F 0 "#PWR0114" H 6325 7100 50  0001 C CNN
F 1 "GNDA" H 6325 7200 50  0000 C CNN
F 2 "" H 6325 7350 50  0000 C CNN
F 3 "" H 6325 7350 50  0000 C CNN
	1    6325 7350
	1    0    0    -1  
$EndComp
$Comp
L MDJ_compo:Hole W101
U 1 1 59A6789A
P 3400 7475
F 0 "W101" H 3400 7745 50  0000 C CNN
F 1 "Hole" H 3400 7675 50  0000 C CNN
F 2 "MDJ_mod:1pin_2.7" H 3600 7475 50  0001 C CNN
F 3 "" H 3600 7475 50  0000 C CNN
	1    3400 7475
	1    0    0    -1  
$EndComp
$Comp
L MDJ_compo:Hole W102
U 1 1 59A684ED
P 3550 7475
F 0 "W102" H 3550 7745 50  0000 C CNN
F 1 "Hole" H 3550 7675 50  0000 C CNN
F 2 "MDJ_mod:1pin_2.7" H 3750 7475 50  0001 C CNN
F 3 "" H 3750 7475 50  0000 C CNN
	1    3550 7475
	1    0    0    -1  
$EndComp
$Comp
L MDJ_compo:Hole W103
U 1 1 59A68821
P 3700 7475
F 0 "W103" H 3700 7745 50  0000 C CNN
F 1 "Hole" H 3700 7675 50  0000 C CNN
F 2 "MDJ_mod:1pin_2.7" H 3900 7475 50  0001 C CNN
F 3 "" H 3900 7475 50  0000 C CNN
	1    3700 7475
	1    0    0    -1  
$EndComp
$Comp
L MDJ_compo:Hole W104
U 1 1 59A68B59
P 3850 7475
F 0 "W104" H 3850 7745 50  0000 C CNN
F 1 "Hole" H 3850 7675 50  0000 C CNN
F 2 "MDJ_mod:1pin_2.7" H 4050 7475 50  0001 C CNN
F 3 "" H 4050 7475 50  0000 C CNN
	1    3850 7475
	1    0    0    -1  
$EndComp
$Comp
L MDJ_compo:Hole W105
U 1 1 59A68E96
P 4000 7475
F 0 "W105" H 4000 7745 50  0000 C CNN
F 1 "Hole" H 4000 7675 50  0000 C CNN
F 2 "MDJ_mod:1pin_2.7" H 4200 7475 50  0001 C CNN
F 3 "" H 4200 7475 50  0000 C CNN
	1    4000 7475
	1    0    0    -1  
$EndComp
$Comp
L MDJ_compo:Hole W109
U 1 1 59A691D2
P 4600 7475
F 0 "W109" H 4600 7745 50  0000 C CNN
F 1 "Hole" H 4600 7675 50  0000 C CNN
F 2 "MDJ_mod:1pin_2.7" H 4800 7475 50  0001 C CNN
F 3 "" H 4800 7475 50  0000 C CNN
	1    4600 7475
	1    0    0    -1  
$EndComp
$Comp
L MDJ_compo:Hole W106
U 1 1 59A694EA
P 4150 7475
F 0 "W106" H 4150 7745 50  0000 C CNN
F 1 "Hole" H 4150 7675 50  0000 C CNN
F 2 "MDJ_mod:1pin_2.7" H 4350 7475 50  0001 C CNN
F 3 "" H 4350 7475 50  0000 C CNN
	1    4150 7475
	1    0    0    -1  
$EndComp
$Comp
L MDJ_compo:Hole W110
U 1 1 59A69A1E
P 4750 7475
F 0 "W110" H 4750 7745 50  0000 C CNN
F 1 "Hole" H 4750 7675 50  0000 C CNN
F 2 "MDJ_mod:1pin_2.7" H 4950 7475 50  0001 C CNN
F 3 "" H 4950 7475 50  0000 C CNN
	1    4750 7475
	1    0    0    -1  
$EndComp
$Comp
L MDJ_compo:Hole W111
U 1 1 59A69D63
P 4900 7475
F 0 "W111" H 4900 7745 50  0000 C CNN
F 1 "Hole" H 4900 7675 50  0000 C CNN
F 2 "MDJ_mod:1pin_2.7" H 5100 7475 50  0001 C CNN
F 3 "" H 5100 7475 50  0000 C CNN
	1    4900 7475
	1    0    0    -1  
$EndComp
$Comp
L MDJ_compo:Hole W112
U 1 1 59A6A0AB
P 5050 7475
F 0 "W112" H 5050 7745 50  0000 C CNN
F 1 "Hole" H 5050 7675 50  0000 C CNN
F 2 "MDJ_mod:1pin_2.7" H 5250 7475 50  0001 C CNN
F 3 "" H 5250 7475 50  0000 C CNN
	1    5050 7475
	1    0    0    -1  
$EndComp
$Comp
L MDJ_compo:Hole W113
U 1 1 59A6A3F6
P 5200 7475
F 0 "W113" H 5200 7745 50  0000 C CNN
F 1 "Hole" H 5200 7675 50  0000 C CNN
F 2 "MDJ_mod:1pin_2.7" H 5400 7475 50  0001 C CNN
F 3 "" H 5400 7475 50  0000 C CNN
	1    5200 7475
	1    0    0    -1  
$EndComp
$Comp
L MDJ_compo:Hole W114
U 1 1 59A6A744
P 5350 7475
F 0 "W114" H 5350 7745 50  0000 C CNN
F 1 "Hole" H 5350 7675 50  0000 C CNN
F 2 "MDJ_mod:1pin_2.7" H 5550 7475 50  0001 C CNN
F 3 "" H 5550 7475 50  0000 C CNN
	1    5350 7475
	1    0    0    -1  
$EndComp
$Comp
L power:GNDA #PWR0109
U 1 1 59A6D08C
P 5500 7475
F 0 "#PWR0109" H 5500 7225 50  0001 C CNN
F 1 "GNDA" H 5500 7325 50  0000 C CNN
F 2 "" H 5500 7475 50  0000 C CNN
F 3 "" H 5500 7475 50  0000 C CNN
	1    5500 7475
	1    0    0    -1  
$EndComp
$Comp
L MDJ_compo:Hole_2.0 W107
U 1 1 59A6F5F3
P 4300 7475
F 0 "W107" H 4300 7745 50  0000 C CNN
F 1 "Hole_2.0" H 4300 7675 50  0000 C CNN
F 2 "MDJ_mod:1pin_2.0" H 4500 7475 50  0001 C CNN
F 3 "" H 4500 7475 50  0000 C CNN
	1    4300 7475
	1    0    0    -1  
$EndComp
$Comp
L MDJ_compo:Hole_2.0 W108
U 1 1 59A6F960
P 4450 7475
F 0 "W108" H 4450 7745 50  0000 C CNN
F 1 "Hole_2.0" H 4450 7675 50  0000 C CNN
F 2 "MDJ_mod:1pin_2.0" H 4650 7475 50  0001 C CNN
F 3 "" H 4650 7475 50  0000 C CNN
	1    4450 7475
	1    0    0    -1  
$EndComp
Text Label 2750 6675 2    50   ~ 0
PwpRstb
$Comp
L MDJ_compo:V1P2A #PWR0103
U 1 1 5B51BED5
P 3600 875
F 0 "#PWR0103" H 3600 725 50  0001 C CNN
F 1 "V1P2A" H 3600 1015 50  0000 C CNN
F 2 "" H 3600 875 50  0000 C CNN
F 3 "" H 3600 875 50  0000 C CNN
	1    3600 875 
	1    0    0    -1  
$EndComp
$Comp
L power:PWR_FLAG #FLG0103
U 1 1 5B53101A
P 775 4475
F 0 "#FLG0103" H 775 4550 50  0001 C CNN
F 1 "PWR_FLAG" H 775 4625 50  0000 C CNN
F 2 "" H 775 4475 50  0001 C CNN
F 3 "" H 775 4475 50  0001 C CNN
	1    775  4475
	1    0    0    -1  
$EndComp
$Comp
L power:PWR_FLAG #FLG0101
U 1 1 5B533144
P 3525 1075
F 0 "#FLG0101" H 3525 1150 50  0001 C CNN
F 1 "PWR_FLAG" H 3525 1225 50  0000 C CNN
F 2 "" H 3525 1075 50  0001 C CNN
F 3 "" H 3525 1075 50  0001 C CNN
	1    3525 1075
	1    0    0    -1  
$EndComp
$Comp
L power:PWR_FLAG #FLG0102
U 1 1 5B533479
P 3775 1075
F 0 "#FLG0102" H 3775 1150 50  0001 C CNN
F 1 "PWR_FLAG" H 3775 1225 50  0000 C CNN
F 2 "" H 3775 1075 50  0001 C CNN
F 3 "" H 3775 1075 50  0001 C CNN
	1    3775 1075
	1    0    0    -1  
$EndComp
$Comp
L power:PWR_FLAG #FLG0104
U 1 1 5B53875A
P 6225 7350
F 0 "#FLG0104" H 6225 7425 50  0001 C CNN
F 1 "PWR_FLAG" H 6225 7500 50  0000 C CNN
F 2 "" H 6225 7350 50  0001 C CNN
F 3 "" H 6225 7350 50  0001 C CNN
	1    6225 7350
	1    0    0    -1  
$EndComp
Wire Wire Line
	3775 1075 3850 1075
Wire Wire Line
	3850 875  3850 1075
Wire Wire Line
	3600 875  3600 1075
Wire Wire Line
	3600 1175 3950 1175
Wire Wire Line
	3850 1475 3950 1475
Connection ~ 3850 1075
Wire Wire Line
	3850 2375 3950 2375
Connection ~ 3850 1475
Wire Wire Line
	3850 2775 3950 2775
Connection ~ 3850 2375
Wire Wire Line
	3850 3175 3950 3175
Connection ~ 3850 2775
Wire Wire Line
	3600 1575 3950 1575
Connection ~ 3600 1175
Wire Wire Line
	3600 2475 3950 2475
Connection ~ 3600 1575
Wire Wire Line
	3600 2875 3950 2875
Connection ~ 3600 2475
Wire Wire Line
	3600 3275 3950 3275
Connection ~ 3600 2875
Wire Wire Line
	3950 1275 3750 1275
Wire Wire Line
	3750 1275 3750 1375
Wire Wire Line
	3950 1375 3750 1375
Connection ~ 3750 1375
Wire Wire Line
	3950 1675 3750 1675
Connection ~ 3750 1675
Wire Wire Line
	3950 1775 3750 1775
Connection ~ 3750 1775
Wire Wire Line
	3950 1875 3750 1875
Connection ~ 3750 1875
Wire Wire Line
	3950 1975 3750 1975
Connection ~ 3750 1975
Wire Wire Line
	3750 2075 3950 2075
Connection ~ 3750 2075
Wire Wire Line
	3950 2175 3750 2175
Connection ~ 3750 2175
Wire Wire Line
	3950 2275 3750 2275
Connection ~ 3750 2275
Wire Wire Line
	3950 2575 3750 2575
Connection ~ 3750 2575
Wire Wire Line
	3950 2675 3750 2675
Connection ~ 3750 2675
Wire Wire Line
	3950 2975 3750 2975
Connection ~ 3750 2975
Wire Wire Line
	3950 3075 3750 3075
Connection ~ 3750 3075
Wire Wire Line
	3950 3375 3750 3375
Connection ~ 3750 3375
Wire Wire Line
	4450 2775 4900 2775
Wire Wire Line
	4450 2875 4900 2875
Wire Wire Line
	4450 2075 4650 2075
Wire Wire Line
	4450 1475 4900 1475
Wire Wire Line
	4450 1575 4900 1575
Wire Wire Line
	4450 975  4550 975 
Wire Wire Line
	4550 975  4550 1275
Wire Wire Line
	4450 1275 4550 1275
Connection ~ 4550 1275
Wire Wire Line
	4450 1375 4550 1375
Connection ~ 4550 1375
Wire Wire Line
	4450 1675 4550 1675
Connection ~ 4550 1675
Wire Wire Line
	4450 1775 4550 1775
Connection ~ 4550 1775
Wire Wire Line
	4450 1875 4550 1875
Connection ~ 4550 1875
Wire Wire Line
	4450 2175 4550 2175
Connection ~ 4550 2175
Wire Wire Line
	4450 2275 4550 2275
Connection ~ 4550 2275
Wire Wire Line
	4450 2575 4550 2575
Connection ~ 4550 2575
Wire Wire Line
	4450 2675 4550 2675
Connection ~ 4550 2675
Wire Wire Line
	4450 2975 4550 2975
Connection ~ 4550 2975
Wire Wire Line
	4450 3075 4550 3075
Connection ~ 4550 3075
Wire Wire Line
	4450 3375 4550 3375
Connection ~ 4550 3375
Wire Wire Line
	775  4475 900  4475
Wire Wire Line
	1000 4175 1000 4475
Wire Wire Line
	2500 4175 2500 4475
Wire Wire Line
	2500 4475 2300 4475
Connection ~ 1000 4475
Wire Wire Line
	900  4225 900  4475
Wire Wire Line
	1200 1425 750  1425
Wire Wire Line
	2300 2125 2750 2125
Wire Wire Line
	1200 2125 750  2125
Wire Wire Line
	1200 2025 750  2025
Wire Wire Line
	1200 1725 750  1725
Wire Wire Line
	2300 1325 2750 1325
Wire Wire Line
	2300 1525 2750 1525
Wire Wire Line
	2300 1625 2750 1625
Wire Wire Line
	2300 1825 2750 1825
Wire Wire Line
	2300 1925 2750 1925
Wire Wire Line
	1000 4175 2500 4175
Wire Wire Line
	1200 4375 1100 4375
Wire Wire Line
	2300 4375 2400 4375
Wire Wire Line
	1100 6975 1200 6975
Connection ~ 1100 6975
Wire Wire Line
	2300 6975 2400 6975
Connection ~ 2400 6975
Wire Wire Line
	1100 3525 1200 3525
Connection ~ 1100 3525
Wire Wire Line
	2400 3525 2300 3525
Connection ~ 2400 3525
Wire Wire Line
	2300 925  2400 925 
Wire Wire Line
	1200 925  1100 925 
Wire Wire Line
	2750 6875 2300 6875
Wire Wire Line
	750  6675 1200 6675
Wire Wire Line
	750  6875 1200 6875
Wire Wire Line
	1000 3425 1000 3625
Wire Wire Line
	1000 3625 2500 3625
Wire Wire Line
	2500 3625 2500 3425
Wire Wire Line
	2500 3425 2300 3425
Wire Wire Line
	6125 7350 6225 7350
Connection ~ 3550 7475
Connection ~ 3700 7475
Connection ~ 3850 7475
Connection ~ 4000 7475
Wire Wire Line
	3400 7475 3550 7475
Connection ~ 4150 7475
Connection ~ 5350 7475
Connection ~ 5200 7475
Connection ~ 5050 7475
Connection ~ 4900 7475
Connection ~ 4750 7475
Connection ~ 4300 7475
Connection ~ 4600 7475
Connection ~ 4450 7475
Connection ~ 900  4475
Wire Wire Line
	3525 1075 3600 1075
Connection ~ 3600 1075
Connection ~ 6225 7350
Text Notes 7375 7500 0    60   ~ 0
VFE_CATIA_LiteDTU-v1_1C
Text Notes 8150 7650 0    60   ~ 0
2019/02/06
$Comp
L Device:R R102
U 1 1 5B4F06B5
P 800 775
F 0 "R102" V 880 775 50  0000 C CNN
F 1 "1k" V 800 775 50  0000 C CNN
F 2 "Resistor_SMD:R_0402_1005Metric" V 730 775 50  0001 C CNN
F 3 "" H 800 775 50  0000 C CNN
	1    800  775 
	-1   0    0    1   
$EndComp
Wire Wire Line
	3850 1075 3950 1075
Wire Wire Line
	3850 1075 3850 1475
Wire Wire Line
	3850 1475 3850 2375
Wire Wire Line
	3850 2375 3850 2775
Wire Wire Line
	3850 2775 3850 3175
Wire Wire Line
	3600 1175 3600 1575
Wire Wire Line
	3600 1575 3600 2475
Wire Wire Line
	3600 2475 3600 2875
Wire Wire Line
	3600 2875 3600 3275
Wire Wire Line
	3750 1375 3750 1675
Wire Wire Line
	3750 1675 3750 1775
Wire Wire Line
	3750 1775 3750 1875
Wire Wire Line
	3750 1875 3750 1975
Wire Wire Line
	3750 1975 3750 2075
Wire Wire Line
	3750 2075 3750 2175
Wire Wire Line
	3750 2175 3750 2275
Wire Wire Line
	3750 2275 3750 2575
Wire Wire Line
	3750 2575 3750 2675
Wire Wire Line
	3750 2675 3750 2975
Wire Wire Line
	3750 2975 3750 3075
Wire Wire Line
	3750 3075 3750 3375
Wire Wire Line
	3750 3375 3750 3525
Wire Wire Line
	4550 1275 4550 1375
Wire Wire Line
	4550 1375 4550 1675
Wire Wire Line
	4550 1675 4550 1775
Wire Wire Line
	4550 1775 4550 1875
Wire Wire Line
	4550 1875 4550 2175
Wire Wire Line
	4550 2175 4550 2275
Wire Wire Line
	4550 2275 4550 2575
Wire Wire Line
	4550 2575 4550 2675
Wire Wire Line
	4550 2675 4550 2975
Wire Wire Line
	4550 2975 4550 3075
Wire Wire Line
	4550 3075 4550 3375
Wire Wire Line
	4550 3375 4550 3525
Wire Wire Line
	1000 4475 1200 4475
Wire Wire Line
	1100 6975 1100 7175
Wire Wire Line
	2400 6975 2400 7175
Wire Wire Line
	1100 3525 1100 3725
Wire Wire Line
	2400 3525 2400 3725
Wire Wire Line
	1000 3425 1200 3425
Wire Wire Line
	3550 7475 3700 7475
Wire Wire Line
	3700 7475 3850 7475
Wire Wire Line
	3850 7475 4000 7475
Wire Wire Line
	4000 7475 4150 7475
Wire Wire Line
	4150 7475 4300 7475
Wire Wire Line
	5350 7475 5500 7475
Wire Wire Line
	5200 7475 5350 7475
Wire Wire Line
	5050 7475 5200 7475
Wire Wire Line
	4900 7475 5050 7475
Wire Wire Line
	4750 7475 4900 7475
Wire Wire Line
	4300 7475 4450 7475
Wire Wire Line
	4600 7475 4750 7475
Wire Wire Line
	4450 7475 4600 7475
Wire Wire Line
	900  4475 1000 4475
Wire Wire Line
	3600 1075 3600 1175
Wire Wire Line
	6225 7350 6325 7350
$Comp
L Device:R R101
U 1 1 5BA4013C
P 950 775
F 0 "R101" V 1030 775 50  0000 C CNN
F 1 "1k" V 950 775 50  0000 C CNN
F 2 "Resistor_SMD:R_0402_1005Metric" V 880 775 50  0001 C CNN
F 3 "" H 950 775 50  0000 C CNN
	1    950  775 
	-1   0    0    -1  
$EndComp
$Comp
L MDJ_compo:V1P2D #PWR0108
U 1 1 5DA47BDC
P 900 4225
F 0 "#PWR0108" H 900 4075 50  0001 C CNN
F 1 "V1P2D" H 725 4300 50  0000 C CNN
F 2 "" H 900 4225 50  0000 C CNN
F 3 "" H 900 4225 50  0000 C CNN
	1    900  4225
	1    0    0    -1  
$EndComp
$Comp
L MDJ_compo:V1P2D #PWR0122
U 1 1 5DA47D91
P 800 625
F 0 "#PWR0122" H 800 475 50  0001 C CNN
F 1 "V1P2D" H 800 750 50  0000 C CNN
F 2 "" H 800 625 50  0000 C CNN
F 3 "" H 800 625 50  0000 C CNN
	1    800  625 
	1    0    0    -1  
$EndComp
Text Label 4700 2475 0    60   ~ 0
C_Leak
Text Label 4700 2375 0    60   ~ 0
C_Ch
Wire Wire Line
	4450 2375 4900 2375
Wire Wire Line
	4450 2475 4900 2475
Text Label 4700 3275 0    60   ~ 0
A_Leak
Text Label 4700 3175 0    60   ~ 0
A_Ch
Wire Wire Line
	4450 3175 4900 3175
Wire Wire Line
	4450 3275 4900 3275
Text Label 4700 1175 0    60   ~ 0
E_Leak
Text Label 4700 1075 0    60   ~ 0
E_Ch
Wire Wire Line
	4450 1075 4900 1075
Wire Wire Line
	4450 1175 4900 1175
Text Label 750  1425 0    50   ~ 0
A_PllLock
Wire Wire Line
	2750 6675 2300 6675
Text Label 2750 2625 2    50   ~ 0
B_D0+
Text Label 2750 2325 2    50   ~ 0
B_Clk+
Text Label 750  2925 0    50   ~ 0
B_OVF
Wire Wire Line
	2300 2325 2750 2325
Wire Wire Line
	2300 2425 2750 2425
Wire Wire Line
	2300 2625 2750 2625
Wire Wire Line
	2300 2725 2750 2725
Text Label 750  2225 0    50   ~ 0
B_PllLock
Text Label 2750 2925 2    50   ~ 0
B_CalBusy
Text Label 2750 2725 2    50   ~ 0
B_D0-
Text Label 2750 2425 2    50   ~ 0
B_Clk-
Text Label 750  2825 0    50   ~ 0
B_SEUA
Text Label 750  2525 0    50   ~ 0
B_SEUD
Wire Wire Line
	1200 2225 750  2225
Wire Wire Line
	2300 2925 2750 2925
Wire Wire Line
	1200 2925 750  2925
Wire Wire Line
	1200 2825 750  2825
Wire Wire Line
	1200 2525 750  2525
Text Label 2750 4675 2    50   ~ 0
C_D0+
Wire Wire Line
	2300 3125 2750 3125
Wire Wire Line
	2300 3225 2750 3225
Wire Wire Line
	2300 4675 2750 4675
Text Label 2750 4775 2    50   ~ 0
C_D0-
Wire Wire Line
	1200 3025 750  3025
Wire Wire Line
	2750 4975 2300 4975
Wire Wire Line
	1200 4975 750  4975
Wire Wire Line
	1200 4875 750  4875
Text Label 2750 3225 2    50   ~ 0
C_Clk-
Text Label 750  4875 0    50   ~ 0
C_SEUA
Text Label 750  3325 0    50   ~ 0
C_SEUD
Wire Wire Line
	1200 3325 750  3325
Text Label 2750 3125 2    50   ~ 0
C_Clk+
Text Label 750  4975 0    50   ~ 0
C_OVF
Wire Wire Line
	2300 4775 2750 4775
Text Label 750  3025 0    50   ~ 0
C_PllLock
Text Label 2750 4975 2    50   ~ 0
C_CalBusy
Text Label 2750 5475 2    50   ~ 0
D_D0+
Text Label 2750 5175 2    50   ~ 0
D_Clk+
Text Label 750  5775 0    50   ~ 0
D_OVF
Wire Wire Line
	2300 5175 2750 5175
Wire Wire Line
	2300 5275 2750 5275
Wire Wire Line
	2300 5475 2750 5475
Wire Wire Line
	2300 5575 2750 5575
Text Label 750  5075 0    50   ~ 0
D_PllLock
Text Label 2750 5775 2    50   ~ 0
D_CalBusy
Text Label 2750 6275 2    50   ~ 0
E_D0+
Text Label 2750 5975 2    50   ~ 0
E_Clk+
Text Label 750  6575 0    50   ~ 0
E_OVF
Wire Wire Line
	2300 5975 2750 5975
Wire Wire Line
	2300 6075 2750 6075
Wire Wire Line
	2300 6275 2750 6275
Wire Wire Line
	2300 6375 2750 6375
Text Label 750  5875 0    50   ~ 0
E_PllLock
Text Label 2750 6575 2    50   ~ 0
E_CalBusy
Text Label 2750 5575 2    50   ~ 0
D_D0-
Text Label 2750 5275 2    50   ~ 0
D_Clk-
Text Label 750  5375 0    50   ~ 0
D_SEUD
Wire Wire Line
	1200 5075 750  5075
Wire Wire Line
	2750 5775 2300 5775
Wire Wire Line
	1200 5775 750  5775
Wire Wire Line
	1200 5675 750  5675
Wire Wire Line
	1200 5375 750  5375
Text Label 2750 6375 2    50   ~ 0
E_D0-
Text Label 2750 6075 2    50   ~ 0
E_Clk-
Text Label 750  6475 0    50   ~ 0
E_SEUA
Text Label 750  6175 0    50   ~ 0
E_SEUD
Wire Wire Line
	1200 5875 750  5875
Wire Wire Line
	2750 6575 2300 6575
Wire Wire Line
	1200 6575 750  6575
Wire Wire Line
	1200 6475 750  6475
Wire Wire Line
	1200 6175 750  6175
Text Label 750  5675 0    50   ~ 0
D_SEUA
Text Label 2375 6775 0    50   ~ 0
Temp_APD
Wire Wire Line
	2750 6775 2300 6775
$Comp
L MDJ_compo:V1P2D #PWR0117
U 1 1 5DF43165
P 775 3525
F 0 "#PWR0117" H 775 3375 50  0001 C CNN
F 1 "V1P2D" H 825 3675 50  0000 C CNN
F 2 "" H 775 3525 50  0000 C CNN
F 3 "" H 775 3525 50  0000 C CNN
	1    775  3525
	1    0    0    -1  
$EndComp
Wire Wire Line
	775  3525 775  3625
Wire Wire Line
	775  3625 1000 3625
Connection ~ 1000 3625
$Comp
L power:GNDD #PWR0110
U 1 1 5DF5C768
P 1100 7175
F 0 "#PWR0110" H 1100 6925 50  0001 C CNN
F 1 "GNDD" H 1100 7025 50  0000 C CNN
F 2 "" H 1100 7175 50  0000 C CNN
F 3 "" H 1100 7175 50  0000 C CNN
	1    1100 7175
	1    0    0    -1  
$EndComp
$Comp
L power:GNDD #PWR0115
U 1 1 5DF5C80B
P 2400 7175
F 0 "#PWR0115" H 2400 6925 50  0001 C CNN
F 1 "GNDD" H 2400 7025 50  0000 C CNN
F 2 "" H 2400 7175 50  0000 C CNN
F 3 "" H 2400 7175 50  0000 C CNN
	1    2400 7175
	1    0    0    -1  
$EndComp
$Comp
L power:GNDD #PWR0118
U 1 1 5DF5C84F
P 1100 3725
F 0 "#PWR0118" H 1100 3475 50  0001 C CNN
F 1 "GNDD" H 1100 3575 50  0000 C CNN
F 2 "" H 1100 3725 50  0000 C CNN
F 3 "" H 1100 3725 50  0000 C CNN
	1    1100 3725
	1    0    0    -1  
$EndComp
$Comp
L power:GNDD #PWR0121
U 1 1 5DF5C8A6
P 2400 3725
F 0 "#PWR0121" H 2400 3475 50  0001 C CNN
F 1 "GNDD" H 2400 3575 50  0000 C CNN
F 2 "" H 2400 3725 50  0000 C CNN
F 3 "" H 2400 3725 50  0000 C CNN
	1    2400 3725
	1    0    0    -1  
$EndComp
$Sheet
S 4550 4275 1150 1850
U 5E108C88
F0 "channel_C" 60
F1 "channel.sch" 60
F2 "Clk+" I L 4550 4875 60 
F3 "Clk-" I L 4550 4975 60 
F4 "In" I L 4550 4375 60 
F5 "Leak" I L 4550 4475 60 
F6 "I2C_Add_0" I L 4550 5275 60 
F7 "I2C_Add_1" I L 4550 5375 60 
F8 "I2C_Add_2" I L 4550 5475 60 
F9 "I2C_SCL" I L 4550 5075 60 
F10 "I2C_SDA" I L 4550 5175 60 
F11 "Calib_trigger" I L 4550 4575 60 
F12 "Tsensor" I L 4550 4675 60 
F13 "Dout0-" O R 5700 4475 60 
F14 "Dout0+" O R 5700 4375 60 
F15 "ReSync+" I L 4550 5625 60 
F16 "ReSync-" I L 4550 5725 60 
F17 "OVF" O R 5700 5275 60 
F18 "CalBusy" O R 5700 5375 60 
F19 "SEUD" O R 5700 5475 60 
F20 "SEUA" O R 5700 5575 60 
F21 "PllLock" O R 5700 5675 60 
F22 "CalIbMode" I L 4550 5825 60 
F23 "TestMode" I L 4550 5925 60 
F24 "PwpRstb" I L 4550 6025 60 
F25 "Dout1-" O R 5700 4675 60 
F26 "Dout1+" O R 5700 4575 60 
F27 "Dout2-" O R 5700 4875 60 
F28 "Dout2+" O R 5700 4775 60 
F29 "Dout3-" O R 5700 5075 60 
F30 "Dout3+" O R 5700 4975 60 
$EndSheet
Text Label 4025 4375 0    60   ~ 0
C_Ch
Text Label 4025 4475 0    60   ~ 0
C_Leak
Text Label 4025 4875 0    60   ~ 0
A_Clk+
Text Label 4025 4975 0    60   ~ 0
A_Clk-
Text Label 4025 5075 0    60   ~ 0
I2C_SCL
Text Label 4025 5175 0    60   ~ 0
I2C_SDA
Text Label 4025 4575 0    60   ~ 0
TP_trigger
Text Label 5750 5675 0    60   ~ 0
A_PllLock
Text Label 5750 4375 0    60   ~ 0
A_D0+
Text Label 5750 4475 0    60   ~ 0
A_D0-
Text Label 5750 5275 0    60   ~ 0
D_OVF
Text Label 5750 5375 0    60   ~ 0
D_CalBusy
Text Label 5750 5475 0    60   ~ 0
D_SEUD
Text Label 5750 5575 0    60   ~ 0
D_SEUA
$Comp
L power:GNDD #PWR0112
U 1 1 5E108CA8
P 3950 5375
F 0 "#PWR0112" H 3950 5125 50  0001 C CNN
F 1 "GNDD" H 3950 5225 50  0000 C CNN
F 2 "" H 3950 5375 50  0000 C CNN
F 3 "" H 3950 5375 50  0000 C CNN
	1    3950 5375
	1    0    0    -1  
$EndComp
Wire Wire Line
	4025 4375 4550 4375
Wire Wire Line
	4025 4475 4550 4475
Wire Wire Line
	4025 4875 4550 4875
Wire Wire Line
	4025 4975 4550 4975
Wire Wire Line
	4025 5075 4550 5075
Wire Wire Line
	4025 5175 4550 5175
Wire Wire Line
	4025 4575 4550 4575
Wire Wire Line
	6000 4375 5700 4375
Wire Wire Line
	6000 5675 5700 5675
Wire Wire Line
	6000 5575 5700 5575
Wire Wire Line
	6000 5475 5700 5475
Wire Wire Line
	6000 5375 5700 5375
Wire Wire Line
	6000 5275 5700 5275
Wire Wire Line
	6000 4475 5700 4475
Wire Wire Line
	4025 5475 4550 5475
Wire Wire Line
	4550 4675 4025 4675
Wire Wire Line
	4075 5375 4550 5375
Text Label 4025 5625 0    60   ~ 0
ReSync+
Text Label 4025 5725 0    60   ~ 0
ReSync-
Wire Wire Line
	4025 5625 4550 5625
Wire Wire Line
	4025 5725 4550 5725
Text Label 4025 5825 0    60   ~ 0
CalibMode
Text Label 4025 5925 0    60   ~ 0
TestMode
Wire Wire Line
	4025 5825 4550 5825
Wire Wire Line
	4025 5925 4550 5925
Text Label 4025 6025 0    60   ~ 0
PwpRstb
Wire Wire Line
	4025 6025 4550 6025
Text Label 4025 4675 0    60   ~ 0
Temp_CATIA
Wire Wire Line
	4025 5275 4075 5275
Wire Wire Line
	3950 5375 4025 5375
Wire Wire Line
	4025 5375 4025 5475
Wire Wire Line
	4075 5275 4075 5375
Connection ~ 4075 5275
Wire Wire Line
	4075 5275 4550 5275
Wire Wire Line
	3950 5325 4025 5325
Wire Wire Line
	4025 5325 4025 5275
$Comp
L MDJ_compo:V1P2D #PWR0111
U 1 1 5E463729
P 3950 5325
F 0 "#PWR0111" H 3950 5175 50  0001 C CNN
F 1 "V1P2D" H 3950 5475 50  0000 C CNN
F 2 "" H 3950 5325 50  0000 C CNN
F 3 "" H 3950 5325 50  0000 C CNN
	1    3950 5325
	1    0    0    -1  
$EndComp
$Comp
L power:GNDA #PWR0107
U 1 1 5E4DDE73
P 4650 2075
F 0 "#PWR0107" H 4650 1825 50  0001 C CNN
F 1 "GNDA" H 4650 1925 50  0000 C CNN
F 2 "" H 4650 2075 50  0000 C CNN
F 3 "" H 4650 2075 50  0000 C CNN
	1    4650 2075
	1    0    0    -1  
$EndComp
Text Label 750  6775 0    50   ~ 0
TP_trigger
Wire Wire Line
	1200 6775 750  6775
Wire Wire Line
	2300 1225 2750 1225
NoConn ~ 14800 2150
Wire Wire Line
	1100 925  1100 1225
Wire Wire Line
	800  1125 1200 1125
Wire Wire Line
	1100 4375 1100 4575
Wire Wire Line
	2400 4375 2400 4575
Wire Wire Line
	2400 925  2400 1025
Wire Wire Line
	950  925  950  1025
Wire Wire Line
	950  1025 1200 1025
Wire Wire Line
	800  925  800  1125
Wire Wire Line
	950  625  800  625 
Connection ~ 800  625 
Wire Wire Line
	2300 6475 2400 6475
Connection ~ 2400 6475
Wire Wire Line
	2400 6475 2400 6975
Wire Wire Line
	2300 6175 2400 6175
Connection ~ 2400 6175
Wire Wire Line
	2400 6175 2400 6475
Wire Wire Line
	2300 5875 2400 5875
Connection ~ 2400 5875
Wire Wire Line
	2400 5875 2400 6175
Wire Wire Line
	1200 5975 1100 5975
Connection ~ 1100 5975
Wire Wire Line
	1100 5975 1100 6075
Wire Wire Line
	1200 6075 1100 6075
Connection ~ 1100 6075
Wire Wire Line
	1200 6375 1100 6375
Wire Wire Line
	1100 6075 1100 6275
Connection ~ 1100 6375
Wire Wire Line
	1100 6375 1100 6975
Wire Wire Line
	1200 6275 1100 6275
Connection ~ 1100 6275
Wire Wire Line
	1100 6275 1100 6375
Wire Wire Line
	1200 5575 1100 5575
Connection ~ 1100 5575
Wire Wire Line
	1100 5575 1100 5975
Wire Wire Line
	1200 5475 1100 5475
Connection ~ 1100 5475
Wire Wire Line
	1100 5475 1100 5575
Wire Wire Line
	2300 5375 2400 5375
Connection ~ 2400 5375
Wire Wire Line
	2300 5675 2400 5675
Wire Wire Line
	2400 5375 2400 5675
Connection ~ 2400 5675
Wire Wire Line
	2400 5675 2400 5875
Wire Wire Line
	2300 5075 2400 5075
Connection ~ 2400 5075
Wire Wire Line
	2400 5075 2400 5375
Wire Wire Line
	2300 4875 2400 4875
Connection ~ 2400 4875
Wire Wire Line
	2400 4875 2400 5075
Wire Wire Line
	2300 4575 2400 4575
Connection ~ 2400 4575
Wire Wire Line
	2400 4575 2400 4875
Wire Wire Line
	1200 4575 1100 4575
Connection ~ 1100 4575
Wire Wire Line
	1100 4575 1100 4675
Wire Wire Line
	1200 4675 1100 4675
Connection ~ 1100 4675
Wire Wire Line
	1100 4675 1100 4775
Wire Wire Line
	1200 4775 1100 4775
Connection ~ 1100 4775
Wire Wire Line
	1100 4775 1100 5175
Wire Wire Line
	2300 3325 2400 3325
Connection ~ 2400 3325
Wire Wire Line
	2400 3325 2400 3525
Wire Wire Line
	2300 3025 2400 3025
Connection ~ 2400 3025
Wire Wire Line
	2400 3025 2400 3325
Wire Wire Line
	2300 2825 2400 2825
Connection ~ 2400 2825
Wire Wire Line
	2400 2825 2400 3025
Wire Wire Line
	2300 2525 2400 2525
Connection ~ 2400 2525
Wire Wire Line
	2400 2525 2400 2825
Wire Wire Line
	2300 2225 2400 2225
Connection ~ 2400 2225
Wire Wire Line
	2400 2225 2400 2525
Wire Wire Line
	2300 2025 2400 2025
Connection ~ 2400 2025
Wire Wire Line
	2400 2025 2400 2225
Wire Wire Line
	1200 2325 1100 2325
Connection ~ 1100 2325
Wire Wire Line
	1100 2325 1100 2425
Wire Wire Line
	1200 2425 1100 2425
Connection ~ 1100 2425
Wire Wire Line
	1100 2425 1100 2625
Wire Wire Line
	1200 2625 1100 2625
Connection ~ 1100 2625
Wire Wire Line
	1100 2625 1100 2725
Wire Wire Line
	1200 2725 1100 2725
Connection ~ 1100 2725
Wire Wire Line
	1100 2725 1100 3125
Wire Wire Line
	1200 3125 1100 3125
Connection ~ 1100 3125
Wire Wire Line
	1100 3125 1100 3225
Wire Wire Line
	1200 3225 1100 3225
Connection ~ 1100 3225
Wire Wire Line
	1100 3225 1100 3525
Wire Wire Line
	1200 1925 1100 1925
Connection ~ 1100 1925
Wire Wire Line
	1100 1925 1100 2325
Wire Wire Line
	1200 1825 1100 1825
Connection ~ 1100 1825
Wire Wire Line
	1100 1825 1100 1925
Wire Wire Line
	1200 1625 1100 1625
Connection ~ 1100 1625
Wire Wire Line
	1100 1625 1100 1825
Wire Wire Line
	1200 1525 1100 1525
Connection ~ 1100 1525
Wire Wire Line
	1100 1525 1100 1625
Wire Wire Line
	1200 1325 1100 1325
Connection ~ 1100 1325
Wire Wire Line
	1100 1325 1100 1525
Wire Wire Line
	1200 1225 1100 1225
Connection ~ 1100 1225
Wire Wire Line
	1100 1225 1100 1325
Wire Wire Line
	2300 1025 2400 1025
Connection ~ 2400 1025
Wire Wire Line
	2400 1025 2400 1125
Wire Wire Line
	2300 1125 2400 1125
Connection ~ 2400 1125
Wire Wire Line
	2400 1125 2400 1425
Wire Wire Line
	2300 1425 2400 1425
Connection ~ 2400 1425
Wire Wire Line
	2400 1425 2400 1725
Wire Wire Line
	2300 1725 2400 1725
Connection ~ 2400 1725
Wire Wire Line
	2400 1725 2400 2025
Wire Wire Line
	1200 5175 1100 5175
Connection ~ 1100 5175
Wire Wire Line
	1100 5175 1100 5275
Wire Wire Line
	1200 5275 1100 5275
Connection ~ 1100 5275
Wire Wire Line
	1100 5275 1100 5475
$Comp
L Device:R R103
U 1 1 5C992EF0
P 2925 1275
F 0 "R103" V 3005 1275 50  0000 C CNN
F 1 "100" V 2925 1275 50  0000 C CNN
F 2 "Resistor_SMD:R_0402_1005Metric" V 2855 1275 50  0001 C CNN
F 3 "" H 2925 1275 50  0000 C CNN
	1    2925 1275
	-1   0    0    -1  
$EndComp
Wire Wire Line
	2750 1225 2750 1125
Wire Wire Line
	2750 1125 2925 1125
Wire Wire Line
	2750 1325 2750 1425
Wire Wire Line
	2750 1425 2925 1425
Text Label 5750 4575 0    60   ~ 0
B_D0+
Text Label 5750 4675 0    60   ~ 0
B_D0-
Wire Wire Line
	6000 4575 5700 4575
Wire Wire Line
	6000 4675 5700 4675
Text Label 5750 4775 0    60   ~ 0
C_D0+
Text Label 5750 4875 0    60   ~ 0
C_D0-
Wire Wire Line
	6000 4775 5700 4775
Wire Wire Line
	6000 4875 5700 4875
Text Label 5750 4975 0    60   ~ 0
D_D0+
Text Label 5750 5075 0    60   ~ 0
D_D0-
Wire Wire Line
	6000 4975 5700 4975
Wire Wire Line
	6000 5075 5700 5075
$Comp
L Connector_Generic:Conn_01x02 J103
U 1 1 5E2BDB97
P 6650 1000
F 0 "J103" H 6730 992 50  0000 L CNN
F 1 "Conn_01x02" H 6730 901 50  0000 L CNN
F 2 "Connector_PinHeader_2.54mm:PinHeader_1x02_P2.54mm_Vertical" H 6650 1000 50  0001 C CNN
F 3 "~" H 6650 1000 50  0001 C CNN
	1    6650 1000
	1    0    0    -1  
$EndComp
$Comp
L power:VEE #PWR0101
U 1 1 5E2DFC70
P 6450 1000
F 0 "#PWR0101" H 6450 850 50  0001 C CNN
F 1 "VEE" H 6467 1173 50  0000 C CNN
F 2 "" H 6450 1000 50  0001 C CNN
F 3 "" H 6450 1000 50  0001 C CNN
	1    6450 1000
	1    0    0    -1  
$EndComp
$Comp
L power:GNDA #PWR0102
U 1 1 5E2DFCD6
P 6450 1100
F 0 "#PWR0102" H 6450 850 50  0001 C CNN
F 1 "GNDA" H 6450 950 50  0000 C CNN
F 2 "" H 6450 1100 50  0000 C CNN
F 3 "" H 6450 1100 50  0000 C CNN
	1    6450 1100
	1    0    0    -1  
$EndComp
Text Notes 6050 725  0    60   ~ 0
-2.5V for ADA4930/32
NoConn ~ 2750 2125
NoConn ~ 2750 2325
NoConn ~ 2750 2425
NoConn ~ 2750 2925
NoConn ~ 2750 3125
NoConn ~ 2750 3225
NoConn ~ 2750 4975
NoConn ~ 2750 5175
NoConn ~ 2750 5275
NoConn ~ 2750 5975
NoConn ~ 2750 6075
NoConn ~ 2750 6275
NoConn ~ 2750 6375
NoConn ~ 750  6575
NoConn ~ 750  6475
NoConn ~ 750  6175
NoConn ~ 750  5875
NoConn ~ 750  4975
NoConn ~ 750  4875
NoConn ~ 750  3325
NoConn ~ 750  3025
NoConn ~ 750  2925
NoConn ~ 750  2825
NoConn ~ 750  2525
NoConn ~ 750  2225
NoConn ~ 750  1725
NoConn ~ 750  2025
NoConn ~ 750  2125
NoConn ~ 4900 1075
NoConn ~ 4900 1175
NoConn ~ 4900 1475
NoConn ~ 4900 1575
NoConn ~ 4900 2775
NoConn ~ 4900 2875
NoConn ~ 4900 3175
NoConn ~ 4900 3275
NoConn ~ 2750 6575
NoConn ~ 750  5075
$Comp
L power:PWR_FLAG #FLG0105
U 1 1 5CF3DD5D
P 6150 1000
F 0 "#FLG0105" H 6150 1075 50  0001 C CNN
F 1 "PWR_FLAG" H 6150 1174 50  0000 C CNN
F 2 "" H 6150 1000 50  0001 C CNN
F 3 "~" H 6150 1000 50  0001 C CNN
	1    6150 1000
	1    0    0    -1  
$EndComp
Wire Wire Line
	6150 1000 6450 1000
Connection ~ 6450 1000
Wire Wire Line
	7925 3175 8025 3175
$Comp
L Device:R R?
U 1 1 5CAFCA3D
P 8175 3175
AR Path="/59140D2B/5CAFCA3D" Ref="R?"  Part="1" 
AR Path="/5B5208C5/5CAFCA3D" Ref="R?"  Part="1" 
AR Path="/5E0256B5/5CAFCA3D" Ref="R?"  Part="1" 
AR Path="/5E108C88/5CAFCA3D" Ref="R?"  Part="1" 
AR Path="/5E130590/5CAFCA3D" Ref="R?"  Part="1" 
AR Path="/5E1C420C/5CAFCA3D" Ref="R?"  Part="1" 
AR Path="/5CAFCA3D" Ref="R106"  Part="1" 
F 0 "R106" V 8255 3175 50  0000 C CNN
F 1 "100" V 8175 3175 39  0000 C CNN
F 2 "Resistor_SMD:R_0402_1005Metric" V 8105 3175 50  0001 C CNN
F 3 "" H 8175 3175 50  0000 C CNN
	1    8175 3175
	0    -1   -1   0   
$EndComp
Wire Wire Line
	7925 3325 7925 3175
Wire Wire Line
	8125 3325 8125 3275
Wire Wire Line
	8125 3275 8250 3275
$Comp
L power:GNDD #PWR?
U 1 1 5CAFCA4A
P 7925 3625
AR Path="/59140D2B/5CAFCA4A" Ref="#PWR?"  Part="1" 
AR Path="/5B5208C5/5CAFCA4A" Ref="#PWR?"  Part="1" 
AR Path="/5E0256B5/5CAFCA4A" Ref="#PWR?"  Part="1" 
AR Path="/5E108C88/5CAFCA4A" Ref="#PWR?"  Part="1" 
AR Path="/5E130590/5CAFCA4A" Ref="#PWR?"  Part="1" 
AR Path="/5E1C420C/5CAFCA4A" Ref="#PWR?"  Part="1" 
AR Path="/5CAFCA4A" Ref="#PWR0152"  Part="1" 
F 0 "#PWR0152" H 7925 3375 50  0001 C CNN
F 1 "GNDD" H 7925 3500 39  0000 C CNN
F 2 "" H 7925 3625 50  0001 C CNN
F 3 "" H 7925 3625 50  0001 C CNN
	1    7925 3625
	1    0    0    -1  
$EndComp
$Comp
L power:GNDD #PWR?
U 1 1 5CAFCA50
P 8125 3625
AR Path="/59140D2B/5CAFCA50" Ref="#PWR?"  Part="1" 
AR Path="/5B5208C5/5CAFCA50" Ref="#PWR?"  Part="1" 
AR Path="/5E0256B5/5CAFCA50" Ref="#PWR?"  Part="1" 
AR Path="/5E108C88/5CAFCA50" Ref="#PWR?"  Part="1" 
AR Path="/5E130590/5CAFCA50" Ref="#PWR?"  Part="1" 
AR Path="/5E1C420C/5CAFCA50" Ref="#PWR?"  Part="1" 
AR Path="/5CAFCA50" Ref="#PWR0153"  Part="1" 
F 0 "#PWR0153" H 8125 3375 50  0001 C CNN
F 1 "GNDD" H 8125 3500 39  0000 C CNN
F 2 "" H 8125 3625 50  0001 C CNN
F 3 "" H 8125 3625 50  0001 C CNN
	1    8125 3625
	1    0    0    -1  
$EndComp
$Comp
L Device:R R?
U 1 1 5CAFCA56
P 8400 3275
AR Path="/59140D2B/5CAFCA56" Ref="R?"  Part="1" 
AR Path="/5B5208C5/5CAFCA56" Ref="R?"  Part="1" 
AR Path="/5E0256B5/5CAFCA56" Ref="R?"  Part="1" 
AR Path="/5E108C88/5CAFCA56" Ref="R?"  Part="1" 
AR Path="/5E130590/5CAFCA56" Ref="R?"  Part="1" 
AR Path="/5E1C420C/5CAFCA56" Ref="R?"  Part="1" 
AR Path="/5CAFCA56" Ref="R107"  Part="1" 
F 0 "R107" V 8480 3275 50  0000 C CNN
F 1 "100" V 8400 3275 39  0000 C CNN
F 2 "Resistor_SMD:R_0402_1005Metric" V 8330 3275 50  0001 C CNN
F 3 "" H 8400 3275 50  0000 C CNN
	1    8400 3275
	0    -1   -1   0   
$EndComp
$Comp
L Device:C C?
U 1 1 5CAFCA5D
P 8125 3475
AR Path="/59140D2B/5CAFCA5D" Ref="C?"  Part="1" 
AR Path="/5B5208C5/5CAFCA5D" Ref="C?"  Part="1" 
AR Path="/5E0256B5/5CAFCA5D" Ref="C?"  Part="1" 
AR Path="/5E108C88/5CAFCA5D" Ref="C?"  Part="1" 
AR Path="/5E130590/5CAFCA5D" Ref="C?"  Part="1" 
AR Path="/5E1C420C/5CAFCA5D" Ref="C?"  Part="1" 
AR Path="/5CAFCA5D" Ref="C102"  Part="1" 
F 0 "C102" H 8075 3575 50  0000 L CNN
F 1 "100p" H 8150 3375 39  0000 L CNN
F 2 "Capacitor_SMD:C_0402_1005Metric" H 8163 3325 50  0001 C CNN
F 3 "" H 8125 3475 50  0000 C CNN
	1    8125 3475
	1    0    0    -1  
$EndComp
$Comp
L Device:C C?
U 1 1 5CAFCA64
P 7925 3475
AR Path="/59140D2B/5CAFCA64" Ref="C?"  Part="1" 
AR Path="/5B5208C5/5CAFCA64" Ref="C?"  Part="1" 
AR Path="/5E0256B5/5CAFCA64" Ref="C?"  Part="1" 
AR Path="/5E108C88/5CAFCA64" Ref="C?"  Part="1" 
AR Path="/5E130590/5CAFCA64" Ref="C?"  Part="1" 
AR Path="/5E1C420C/5CAFCA64" Ref="C?"  Part="1" 
AR Path="/5CAFCA64" Ref="C101"  Part="1" 
F 0 "C101" H 7875 3575 50  0000 L CNN
F 1 "100p" H 7950 3375 39  0000 L CNN
F 2 "Capacitor_SMD:C_0402_1005Metric" H 7963 3325 50  0001 C CNN
F 3 "" H 7925 3475 50  0000 C CNN
	1    7925 3475
	1    0    0    -1  
$EndComp
$Comp
L Device:R R?
U 1 1 5CC14271
P 7700 3175
AR Path="/59140D2B/5CC14271" Ref="R?"  Part="1" 
AR Path="/5B5208C5/5CC14271" Ref="R?"  Part="1" 
AR Path="/5E0256B5/5CC14271" Ref="R?"  Part="1" 
AR Path="/5E108C88/5CC14271" Ref="R?"  Part="1" 
AR Path="/5E130590/5CC14271" Ref="R?"  Part="1" 
AR Path="/5E1C420C/5CC14271" Ref="R?"  Part="1" 
AR Path="/5CC14271" Ref="R105"  Part="1" 
F 0 "R105" V 7780 3175 50  0000 C CNN
F 1 "100" V 7700 3175 39  0000 C CNN
F 2 "Resistor_SMD:R_0402_1005Metric" V 7630 3175 50  0001 C CNN
F 3 "" H 7700 3175 50  0000 C CNN
	1    7700 3175
	0    -1   -1   0   
$EndComp
$Comp
L Device:R R?
U 1 1 5CC142DF
P 7475 3275
AR Path="/59140D2B/5CC142DF" Ref="R?"  Part="1" 
AR Path="/5B5208C5/5CC142DF" Ref="R?"  Part="1" 
AR Path="/5E0256B5/5CC142DF" Ref="R?"  Part="1" 
AR Path="/5E108C88/5CC142DF" Ref="R?"  Part="1" 
AR Path="/5E130590/5CC142DF" Ref="R?"  Part="1" 
AR Path="/5E1C420C/5CC142DF" Ref="R?"  Part="1" 
AR Path="/5CC142DF" Ref="R104"  Part="1" 
F 0 "R104" V 7555 3275 50  0000 C CNN
F 1 "100" V 7475 3275 39  0000 C CNN
F 2 "Resistor_SMD:R_0402_1005Metric" V 7405 3275 50  0001 C CNN
F 3 "" H 7475 3275 50  0000 C CNN
	1    7475 3275
	0    -1   -1   0   
$EndComp
Wire Wire Line
	7850 3175 7925 3175
Connection ~ 7925 3175
Wire Wire Line
	7625 3275 8125 3275
Connection ~ 8125 3275
Wire Wire Line
	7550 3175 7000 3175
Wire Wire Line
	7325 3275 7000 3275
Text Label 7000 3175 0    39   ~ 0
I2C_SCL_in
Text Label 7000 3275 0    39   ~ 0
I2C_SDA_in
Text Label 8650 3175 0    39   ~ 0
I2C_SCL
Text Label 8650 3275 0    39   ~ 0
I2C_SDA
$Comp
L Device:R R108
U 1 1 5CA99318
P 8900 2975
F 0 "R108" V 8980 2975 50  0000 C CNN
F 1 "1k" V 8900 2975 50  0000 C CNN
F 2 "Resistor_SMD:R_0402_1005Metric" V 8830 2975 50  0001 C CNN
F 3 "" H 8900 2975 50  0000 C CNN
	1    8900 2975
	-1   0    0    1   
$EndComp
$Comp
L Device:R R109
U 1 1 5CA9931E
P 9050 2975
F 0 "R109" V 9130 2975 50  0000 C CNN
F 1 "1k" V 9050 2975 50  0000 C CNN
F 2 "Resistor_SMD:R_0402_1005Metric" V 8980 2975 50  0001 C CNN
F 3 "" H 9050 2975 50  0000 C CNN
	1    9050 2975
	-1   0    0    -1  
$EndComp
$Comp
L MDJ_compo:V1P2D #PWR0158
U 1 1 5CA99324
P 8900 2825
F 0 "#PWR0158" H 8900 2675 50  0001 C CNN
F 1 "V1P2D" H 8900 2950 50  0000 C CNN
F 2 "" H 8900 2825 50  0000 C CNN
F 3 "" H 8900 2825 50  0000 C CNN
	1    8900 2825
	1    0    0    -1  
$EndComp
Wire Wire Line
	9050 2825 8900 2825
Connection ~ 8900 2825
Wire Wire Line
	8900 3175 8900 3125
Wire Wire Line
	8325 3175 8900 3175
Wire Wire Line
	9050 3275 9050 3125
Wire Wire Line
	8550 3275 9050 3275
$Comp
L Device:C C?
U 1 1 5CD413BF
P 9225 2975
AR Path="/59140D2B/5CD413BF" Ref="C?"  Part="1" 
AR Path="/5B5208C5/5CD413BF" Ref="C?"  Part="1" 
AR Path="/5E0256B5/5CD413BF" Ref="C?"  Part="1" 
AR Path="/5E108C88/5CD413BF" Ref="C?"  Part="1" 
AR Path="/5E130590/5CD413BF" Ref="C?"  Part="1" 
AR Path="/5E1C420C/5CD413BF" Ref="C?"  Part="1" 
AR Path="/5CD413BF" Ref="C104"  Part="1" 
F 0 "C104" H 9175 3075 50  0000 L CNN
F 1 "10u" H 9250 2875 39  0000 L CNN
F 2 "Capacitor_SMD:C_0402_1005Metric" H 9263 2825 50  0001 C CNN
F 3 "" H 9225 2975 50  0000 C CNN
	1    9225 2975
	1    0    0    -1  
$EndComp
Wire Wire Line
	9050 2825 9225 2825
Connection ~ 9050 2825
$Comp
L power:GNDD #PWR?
U 1 1 5CD6409B
P 9225 3125
AR Path="/59140D2B/5CD6409B" Ref="#PWR?"  Part="1" 
AR Path="/5B5208C5/5CD6409B" Ref="#PWR?"  Part="1" 
AR Path="/5E0256B5/5CD6409B" Ref="#PWR?"  Part="1" 
AR Path="/5E108C88/5CD6409B" Ref="#PWR?"  Part="1" 
AR Path="/5E130590/5CD6409B" Ref="#PWR?"  Part="1" 
AR Path="/5E1C420C/5CD6409B" Ref="#PWR?"  Part="1" 
AR Path="/5CD6409B" Ref="#PWR0159"  Part="1" 
F 0 "#PWR0159" H 9225 2875 50  0001 C CNN
F 1 "GNDD" H 9225 3000 39  0000 C CNN
F 2 "" H 9225 3125 50  0001 C CNN
F 3 "" H 9225 3125 50  0001 C CNN
	1    9225 3125
	1    0    0    -1  
$EndComp
$Comp
L Device:C C?
U 1 1 5CD64A0D
P 575 775
AR Path="/59140D2B/5CD64A0D" Ref="C?"  Part="1" 
AR Path="/5B5208C5/5CD64A0D" Ref="C?"  Part="1" 
AR Path="/5E0256B5/5CD64A0D" Ref="C?"  Part="1" 
AR Path="/5E108C88/5CD64A0D" Ref="C?"  Part="1" 
AR Path="/5E130590/5CD64A0D" Ref="C?"  Part="1" 
AR Path="/5E1C420C/5CD64A0D" Ref="C?"  Part="1" 
AR Path="/5CD64A0D" Ref="C103"  Part="1" 
F 0 "C103" H 525 875 50  0000 L CNN
F 1 "10u" H 600 675 39  0000 L CNN
F 2 "Capacitor_SMD:C_0402_1005Metric" H 613 625 50  0001 C CNN
F 3 "" H 575 775 50  0000 C CNN
	1    575  775 
	1    0    0    -1  
$EndComp
Wire Wire Line
	800  625  575  625 
$Comp
L power:GNDD #PWR0160
U 1 1 5CDEF9C4
P 575 925
F 0 "#PWR0160" H 575 675 50  0001 C CNN
F 1 "GNDD" H 575 775 50  0000 C CNN
F 2 "" H 575 925 50  0000 C CNN
F 3 "" H 575 925 50  0000 C CNN
	1    575  925 
	1    0    0    -1  
$EndComp
Text Label 750  6675 0    50   ~ 0
TestMode
$Comp
L Device:R R?
U 1 1 5D0E2723
P 5200 1975
AR Path="/59140D2B/5D0E2723" Ref="R?"  Part="1" 
AR Path="/5B5208C5/5D0E2723" Ref="R?"  Part="1" 
AR Path="/5E0256B5/5D0E2723" Ref="R?"  Part="1" 
AR Path="/5E108C88/5D0E2723" Ref="R?"  Part="1" 
AR Path="/5E130590/5D0E2723" Ref="R?"  Part="1" 
AR Path="/5E1C420C/5D0E2723" Ref="R?"  Part="1" 
AR Path="/5D0E2723" Ref="R110"  Part="1" 
F 0 "R110" V 5280 1975 50  0000 C CNN
F 1 "65k" V 5200 1975 39  0000 C CNN
F 2 "Resistor_SMD:R_0402_1005Metric" V 5130 1975 50  0001 C CNN
F 3 "" H 5200 1975 50  0000 C CNN
	1    5200 1975
	0    -1   -1   0   
$EndComp
Wire Wire Line
	4450 1975 5050 1975
$Comp
L MDJ_compo:V1P2A #PWR0164
U 1 1 5D128DB0
P 5350 1975
F 0 "#PWR0164" H 5350 1825 50  0001 C CNN
F 1 "V1P2A" H 5350 2115 50  0000 C CNN
F 2 "" H 5350 1975 50  0000 C CNN
F 3 "" H 5350 1975 50  0000 C CNN
	1    5350 1975
	1    0    0    -1  
$EndComp
$EndSCHEMATC
