"Id";"Référence";"Boîtier";"Quantité";"Désignation";"Fournisseur et réf";
1;"R416,R415,R417,R418,R231,R232,R233,R234";"R_0402_1005Metric";8;"47";;;
2;"W107,W108";"1pin_2.0";2;"Hole_2.0";;;
3;"W101,W102,W103,W104,W105,W106,W109,W110,W111,W112,W113,W114";"1pin_2.7";12;"Hole";;;
4;"J102,J101";"ERNI-154765";2;"ERNI-154765";;;
5;"R102,R101,R405,R408,R409,R410,R411,R412,R413,R414,R419,R420,R421,R422,R423,R424,R425,R202,R205,R206,R218,R221,R222,R108,R109";"R_0402_1005Metric";25;"1k";;;
6;"C401";"C_1808";1;"100n";;;
7;"C402,C403,C405,C406,C407,C411,C412,C415,C417,C418,C420,C424,C425,C427,C429,C432,C435,C439,C440,C450,C452";"C_0402_1005Metric";21;"100n";;;
8;"C404,C408,C409,C410,C413,C414,C416,C419,C421,C422,C423,C426,C428,C430,C431,C433,C434,C436,C437,C438,C447,C448,C449,C455,C456,C201,C202,C203,C204,C205,C206,C207,C208,C209,C210,C211,C212,C103,C104,C213,C214";"C_0402_1005Metric";41;"10u";;;
9;"C441,C442";"C_0402_1005Metric";2;"47p";;;
10;"P101";"Samtec_IPT125_R";1;"CONN_IPT125";;;
11;"R401,R403";"R_0402_1005Metric";2;"10k";;;
12;"R402";"R_0402_1005Metric";1;"20";;;
13;"R404";"R_0402_1005Metric";1;"1.5k";;;
14;"R406";"R_0402_1005Metric";1;"1";;;
15;"R407";"R_0402_1005Metric";1;"4k";;;
16;"U401";"LQFP-100_14x14mm_P0.5mm";1;"CATIA-v1";;;
17;"R426,R427,R428,R429";"R_0402_1005Metric";4;"10";;;
18;"C444,C446,C454,C443,C445";"C_0603_1608Metric";5;"10u";;;
19;"R103,R104,R105,R106,R107,R237,R238,R239,R240";"R_0402_1005Metric";9;"100";;;
20;"J103,J201,J202,J203,J204,J205,J206";"PinHeader_1x02_P2.54mm_Vertical";7;"Conn_01x02";;;
21;"P201,P202";"SMA_Amphenol_132134-11_Vertical";2;"SMA";;;
22;"R201,R217";"R_0402_1005Metric";2;"50";;;
23;"R203,R204,R219,R220";"R_0402_1005Metric";4;"330";;;
24;"R207,R208,R210,R211,R223,R224,R226,R227";"R_0402_1005Metric";8;"301";;;
25;"R209,R225";"R_0402_1005Metric";2;"2.7k";;;
26;"R212,R213,R215,R216,R228,R229,R235,R236";"R_0402_1005Metric";8;"0";;;
27;"R214,R230";"R_0402_1005Metric";2;"200";;;
28;"RV201,RV202,RV204,RV205";"Potentiometer_Bourns_3224W_Vertical";4;"200";;;
29;"RV203,RV206";"Potentiometer_Bourns_3224W_Vertical";2;"1k";;;
30;"U201,U202";"QFN-16-1EP_3x3mm_P0.5mm_EP1.8x1.8mm_4Gnd";2;"ADA4930-1";;;
31;"C101,C102";"C_0402_1005Metric";2;"100p";;;
32;"U203";"SOT-353_SC-70-5";1;"NC7SV17";;;
33;"J207,J208";"PinHeader_2x02_P2.54mm_Vertical";2;"Conn_02x02";;;
34;"R110";"R_0402_1005Metric";1;"65k";;;
35;"U402";"QFN-72_1EP_10x10mm_P0.5mm";1;"LiTE-DTU-v1";;;
36;"FB201,FB202,FB203,FB204,FB205";"L_0603_1608Metric";5;"Ferrite_Bead_Small";;;
